............
----------------------------------------------------------------------
Ran 12 tests in 0.002s

OK
Name             Stmts   Miss Branch BrPart  Cover   Missing
------------------------------------------------------------
Collatz.py          24      0      8      0   100%
TestCollatz.py      53      0      0      0   100%
------------------------------------------------------------
TOTAL               77      0      8      0   100%
